GameWeek,Squad,Px
1,Vida,1.00
1,UPNFM,1.00
1,Real Sociedad,0.00
1,Olimpia,3.00
1,Motagua,3.00
1,Platense,0.00
1,Honduras Progreso,1.00
1,Marathón,2.00
1,Real España,1.00
1,Victoria,1.00
2,Marathón,5.00
2,UPNFM,1.00
2,Victoria,0.00
2,Motagua,1.00
2,Real Sociedad,3.00
2,Vida,3.00
2,Olimpia,1.00
2,Real España,1.00
2,Platense,1.00
2,Honduras Progreso,1.00
3,Marathón,2.00
3,Motagua,0.00
3,Victoria,0.00
3,Real Sociedad,2.00
3,UPNFM,3.00
3,Honduras Progreso,0.00
3,Platense,0.00
3,Real España,2.00
3,Olimpia,1.00
3,Vida,1.00
4,Real España,1.00
4,Real Sociedad,1.00
4,UPNFM,3.00
4,Platense,0.00
4,Honduras Progreso,2.00
4,Victoria,0.00
4,Vida,2.00
4,Marathón,0.00
4,Motagua,3.00
4,Olimpia,2.00
5,Real España,5.00
5,UPNFM,3.00
5,Vida,2.00
5,Victoria,0.00
5,Real Sociedad,3.00
5,Motagua,3.00
5,Olimpia,2.00
5,Honduras Progreso,1.00
5,Platense,3.00
5,Marathón,1.00
6,Honduras Progreso,1.00
6,Vida,1.00
6,Victoria,0.00
6,Olimpia,3.00
6,Marathón,0.00
6,Real España,1.00
6,Real Sociedad,1.00
6,Platense,1.00
6,Motagua,0.00
6,UPNFM,0.00
7,Olimpia,3.00
7,Platense,0.00
7,UPNFM,3.00
7,Victoria,0.00
7,Marathón,2.00
7,Real Sociedad,1.00
7,Honduras Progreso,0.00
7,Motagua,3.00
7,Vida,1.00
7,Real España,0.00
8,UPNFM,0.00
8,Olimpia,0.00
8,Real España,2.00
8,Motagua,1.00
8,Victoria,1.00
8,Marathón,0.00
8,Real Sociedad,1.00
8,Honduras Progreso,0.00
8,Platense,1.00
8,Vida,4.00
9,Marathón,3.00
9,Olimpia,1.00
9,UPNFM,2.00
9,Real Sociedad,0.00
9,Honduras Progreso,1.00
9,Real España,1.00
9,Victoria,2.00
9,Platense,0.00
9,Motagua,2.00
9,Vida,1.00
10,Olimpia,4.00
10,Victoria,0.00
10,UPNFM,2.00
10,Motagua,2.00
10,Platense,2.00
10,Real Sociedad,3.00
10,Real España,0.00
10,Marathón,1.00
10,Vida,1.00
10,Honduras Progreso,0.00
11,Victoria,1.00
11,Honduras Progreso,2.00
11,Marathón,1.00
11,Vida,2.00
11,Platense,2.00
11,UPNFM,3.00
11,Real Sociedad,0.00
11,Real España,4.00
11,Olimpia,0.00
11,Motagua,0.00
12,Honduras Progreso,4.00
12,Platense,2.00
12,Real España,1.00
12,Olimpia,1.00
12,Vida,2.00
12,Real Sociedad,1.00
12,Motagua,5.00
12,Victoria,0.00
12,UPNFM,1.00
12,Marathón,1.00
13,Marathón,2.00
13,Honduras Progreso,1.00
13,UPNFM,0.00
13,Vida,0.00
13,Victoria,0.00
13,Real España,2.00
13,Olimpia,4.00
13,Real Sociedad,0.00
13,Platense,2.00
13,Motagua,3.00
14,Real España,2.00
14,Platense,1.00
14,Honduras Progreso,0.00
14,UPNFM,1.00
14,Vida,2.00
14,Olimpia,1.00
14,Real Sociedad,2.00
14,Victoria,1.00
14,Motagua,2.00
14,Marathón,1.00
15,Honduras Progreso,0.00
15,Olimpia,2.00
15,Victoria,1.00
15,Vida,2.00
15,Marathón,1.00
15,Platense,1.00
15,Motagua,5.00
15,Real Sociedad,1.00
15,UPNFM,1.00
15,Real España,2.00
16,Real Sociedad,0.00
16,UPNFM,3.00
16,Olimpia,1.00
16,Marathón,0.00
16,Real España,4.00
16,Honduras Progreso,1.00
16,Platense,1.00
16,Victoria,2.00
16,Vida,1.00
16,Motagua,1.00
17,Marathón,0.00
17,Victoria,0.00
17,Motagua,0.00
17,Real España,1.00
17,Olimpia,2.00
17,UPNFM,1.00
17,Vida,3.00
17,Platense,1.00
17,Honduras Progreso,2.00
17,Real Sociedad,1.00
18,Platense,1.00
18,Olimpia,4.00
18,Real Sociedad,0.00
18,Marathón,3.00
18,Motagua,3.00
18,Honduras Progreso,2.00
18,Victoria,1.00
18,UPNFM,0.00
18,Real España,2.00
18,Vida,1.00
