﻿,HT,HS,AS,AT,HT_xG,AT_xG,Date,Torneo,GW
0,Vida,1,1,UPNFM,1.87,0.68,7/8/2021,Apertura,1
1,Real Sociedad,0,3,Olimpia,0.75,3.63,8/8/2021,Apertura,1
2,Motagua,3,0,Platense,4.05,0.45,8/8/2021,Apertura,1
3,Honduras Progreso,1,2,Marathón,0.95,1.22,8/8/2021,Apertura,1
4,Real España,1,1,Victoria,2.76,0.47,20/10/2021,Apertura,1
5,Marathón,5,1,UPNFM,2.01,1.04,11/8/2021,Apertura,2
6,Victoria,0,1,Motagua,0.57,1.72,11/8/2021,Apertura,2
7,Real Sociedad,3,3,Vida,0.9,3.12,11/8/2021,Apertura,2
8,Olimpia,1,1,Real España,0.57,0.6,11/8/2021,Apertura,2
9,Platense,1,1,Honduras Progreso,1.8,1.88,12/8/2021,Apertura,2
10,Marathón,2,0,Motagua,1.5,1.12,14/08/2021,Apertura,3
11,Victoria,0,2,Real Sociedad,0.97,1.19,14/08/2021,Apertura,3
12,UPNFM,3,0,Honduras Progreso,2.09,0.41,15/08/2021,Apertura,3
13,Platense,0,2,Real España,0.38,3.22,15/08/2021,Apertura,3
14,Olimpia,1,1,Vida,1.74,0.6,15/08/2021,Apertura,3
15,Real España,1,1,Real Sociedad,2.77,1.09,21/08/2021,Apertura,4
16,UPNFM,3,0,Platense,2.6,0.31,21/08/2021,Apertura,4
17,Honduras Progreso,2,0,Victoria,1.59,0.51,21/08/2021,Apertura,4
18,Vida,2,0,Marathón,1.25,0.45,21/08/2021,Apertura,4
19,Motagua,3,2,Olimpia,0.7,1.43,22/08/2021,Apertura,4
20,Real España,5,3,UPNFM,2.17,1.45,25/08/2021,Apertura,5
21,Vida,2,0,Victoria,2.32,0.2,25/08/2021,Apertura,5
22,Real Sociedad,3,3,Motagua,0.91,3.1,25/08/2021,Apertura,5
23,Olimpia,2,1,Honduras Progreso,2.4,0.32,25/08/2021,Apertura,5
24,Platense,3,1,Marathón,1.45,2.07,26/08/2021,Apertura,5
25,Honduras Progreso,1,1,Vida,0.98,1.94,28/08/2021,Apertura,6
26,Victoria,0,3,Olimpia,0.45,2.18,28/08/2021,Apertura,6
27,Marathón,0,1,Real España,0.53,1.12,29/08/2021,Apertura,6
28,Real Sociedad,1,1,Platense,1.75,1.36,29/08/2021,Apertura,6
29,Motagua,0,0,UPNFM,2.8,0.99,30/08/2021,Apertura,6
30,Olimpia,3,0,Platense,3.11,0.26,1/9/2021,Apertura,7
31,UPNFM,3,0,Victoria,2.28,0.2,3/9/2021,Apertura,7
32,Marathón,2,1,Real Sociedad,2.44,0.85,4/9/2021,Apertura,7
33,Honduras Progreso,0,3,Motagua,1.01,1.9,4/9/2021,Apertura,7
34,Vida,1,0,Real España,0.47,0.7,4/9/2021,Apertura,7
35,UPNFM,0,0,Olimpia,1.2,0.9,11/9/2021,Apertura,8
36,Real España,2,1,Motagua,1.62,1.59,11/9/2021,Apertura,8
37,Victoria,1,0,Marathón,0.51,1.11,11/9/2021,Apertura,8
38,Real Sociedad,1,0,Honduras Progreso,1.34,1.72,12/9/2021,Apertura,8
39,Platense,1,4,Vida,1.17,3.41,12/9/2021,Apertura,8
40,Marathón,3,1,Olimpia,1.25,1.4,15/09/2021,Apertura,9
41,UPNFM,2,0,Real Sociedad,2.18,0.51,15/09/2021,Apertura,9
42,Honduras Progreso,1,1,Real España,0.33,1.91,15/09/2021,Apertura,9
43,Victoria,2,0,Platense,1.04,0.73,15/09/2021,Apertura,9
44,Motagua,2,1,Vida,2.1,1.21,16/09/2021,Apertura,9
45,Olimpia,4,0,Victoria,2.77,0.14,18/09/2021,Apertura,10
46,UPNFM,2,2,Motagua,1.48,0.75,19/09/2021,Apertura,10
47,Platense,2,3,Real Sociedad,1.91,2.35,19/09/2021,Apertura,10
48,Real España,0,1,Marathón,1.47,0.99,19/09/2021,Apertura,10
49,Vida,1,0,Honduras Progreso,2.04,0.43,19/09/2021,Apertura,10
50,Victoria,1,2,Honduras Progreso,0.82,0.97,22/09/2021,Apertura,11
51,Marathón,1,2,Vida,1.42,1.21,25/09/2021,Apertura,11
52,Platense,2,3,UPNFM,1.63,2.98,26/09/2021,Apertura,11
53,Real Sociedad,0,4,Real España,0.32,2.97,26/09/2021,Apertura,11
54,Olimpia,0,0,Motagua,1.65,0.57,6/11/2021,Apertura,11
55,Honduras Progreso,4,2,Platense,1.8,0.81,2/10/2021,Apertura,12
56,Real España,1,1,Olimpia,1.41,1.9,2/10/2021,Apertura,12
57,Vida,2,1,Real Sociedad,2.34,0.49,2/10/2021,Apertura,12
58,Motagua,5,0,Victoria,3.55,0.31,3/10/2021,Apertura,12
59,UPNFM,1,1,Marathón,1.19,0.47,3/10/2021,Apertura,12
60,Marathón,2,1,Honduras Progreso,2.28,0.65,9/10/2021,Apertura,13
61,UPNFM,0,0,Vida,1.35,0.81,9/10/2021,Apertura,13
62,Victoria,0,2,Real España,0.19,1.72,9/10/2021,Apertura,13
63,Olimpia,4,0,Real Sociedad,2.74,0.38,9/10/2021,Apertura,13
64,Platense,2,3,Motagua,1.14,3.28,9/10/2021,Apertura,13
65,Real España,2,1,Platense,3.03,0.67,16/10/2021,Apertura,14
66,Honduras Progreso,0,1,UPNFM,1.41,1.7,16/10/2021,Apertura,14
67,Vida,2,1,Olimpia,1.15,0.9,16/10/2021,Apertura,14
68,Real Sociedad,2,1,Victoria,1.54,0.83,17/10/2021,Apertura,14
69,Motagua,2,1,Marathón,1.92,0.74,17/10/2021,Apertura,14
70,Honduras Progreso,0,2,Olimpia,0.83,2.14,23/10/2021,Apertura,15
71,Victoria,1,2,Vida,0.87,2.12,23/10/2021,Apertura,15
72,Marathón,1,1,Platense,2.77,0.49,24/10/2021,Apertura,15
73,Motagua,5,1,Real Sociedad,3.58,0.8,24/10/2021,Apertura,15
74,UPNFM,1,2,Real España,0.45,0.7,24/10/2021,Apertura,15
75,Real Sociedad,0,3,UPNFM,1.19,2.72,27/10/2021,Apertura,16
76,Olimpia,1,0,Marathón,1.58,0.36,27/10/2021,Apertura,16
77,Real España,4,1,Honduras Progreso,2.47,0.9,27/10/2021,Apertura,16
78,Platense,1,2,Victoria,1.94,0.96,27/10/2021,Apertura,16
79,Vida,1,1,Motagua,1.38,0.7,27/10/2021,Apertura,16
80,Marathón,0,0,Victoria,2.4,0.34,30/10/2021,Apertura,17
81,Motagua,0,1,Real España,0.67,1.15,30/10/2021,Apertura,17
82,Olimpia,2,1,UPNFM,2.16,0.5,31/10/2021,Apertura,17
83,Vida,3,1,Platense,2.58,0.31,31/10/2021,Apertura,17
84,Honduras Progreso,2,1,Real Sociedad,1.66,1.3,31/10/2021,Apertura,17
85,Platense,1,4,Olimpia,1.02,3.9,9/11/2021,Apertura,18
86,Real Sociedad,0,3,Marathón,0.86,1.87,9/11/2021,Apertura,18
87,Motagua,3,2,Honduras Progreso,3.17,0.68,9/11/2021,Apertura,18
88,Victoria,1,0,UPNFM,0.73,1.54,9/11/2021,Apertura,18
89,Real España,2,1,Vida,1.67,1.72,9/11/2021,Apertura,18
90,UPNFM,3,0,Vida,0.94,1.63,19/01/2022,Clausura,1
91,Olimpia,4,2,Real Sociedad,3.17,0.37,19/01/2022,Clausura,1
92,Honduras Progreso,2,1,Motagua,1.04,0.97,19/01/2022,Clausura,1
93,Victoria,4,1,Real España,1.13,1.52,19/01/2022,Clausura,1
94,Marathón,1,0,Platense,1.46,1.35,20/01/2022,Clausura,1
95,Honduras Progreso,1,2,UPNFM,1.97,1.13,22/01/2022,Clausura,2
96,Victoria,2,0,Real Sociedad,3.08,0.45,22/01/2022,Clausura,2
97,Motagua,0,0,Vida,2.18,0.8,23/01/2022,Clausura,2
98,Marathón,1,0,Olimpia,0.98,1.64,23/01/2022,Clausura,2
99,Platense,2,1,Real España,0.46,1.18,23/01/2022,Clausura,2
100,Olimpia,3,0,Honduras Progreso,1.95,0.96,5/2/2022,Clausura,3
101,Platense,0,2,Victoria,0.49,1.24,5/2/2022,Clausura,3
102,Real España,1,2,Motagua,1.37,0.97,5/2/2022,Clausura,3
103,Vida,3,0,Marathón,1.71,0.61,5/2/2022,Clausura,3
104,Real Sociedad,2,2,UPNFM,1.98,1.32,6/2/2022,Clausura,3
105,Motagua,1,0,Victoria,1.41,1.17,8/2/2022,Clausura,4
106,Real Sociedad,4,2,Honduras Progreso,2.19,1.63,9/2/2022,Clausura,4
107,UPNFM,1,2,Platense,0.69,2.1,9/2/2022,Clausura,4
108,Vida,0,3,Olimpia,0.82,1.84,9/2/2022,Clausura,4
109,Marathón,2,0,Real España,1.37,1.36,10/2/2022,Clausura,4
110,Olimpia,1,1,Motagua,0.99,0.67,12/2/2022,Clausura,5
111,Victoria,3,0,UPNFM,2.05,1.01,12/2/2022,Clausura,5
112,Honduras Progreso,2,1,Marathón,1.66,0.77,13/02/2022,Clausura,5
113,Real España,4,1,Real Sociedad,4.17,0.51,13/02/2022,Clausura,5
114,Platense,1,2,Vida,0.71,0.98,13/02/2022,Clausura,5
115,Marathón,2,3,Victoria,1.42,1.46,19/02/2022,Clausura,6
116,Vida,0,2,Honduras Progreso,2.16,1.17,19/02/2022,Clausura,6
117,Real Sociedad,1,1,Platense,1.14,2.16,20/02/2022,Clausura,6
118,UPNFM,0,0,Motagua,0.6,1.19,20/02/2022,Clausura,6
119,Olimpia,1,3,Real España,1.08,1.2,20/02/2022,Clausura,6
120,UPNFM,0,3,Olimpia,0.45,2.54,26/02/2022,Clausura,7
121,Real España,3,0,Honduras Progreso,2.63,1.36,26/02/2022,Clausura,7
122,Victoria,1,2,Vida,1.79,1.16,26/02/2022,Clausura,7
123,Real Sociedad,1,0,Marathón,1.76,0.83,27/02/2022,Clausura,7
124,Motagua,2,0,Platense,1.33,1.04,27/02/2022,Clausura,7
125,Platense,0,3,Olimpia,0.31,1.41,2/3/2022,Clausura,8
126,Motagua,2,1,Marathón,1.92,0.47,2/3/2022,Clausura,8
127,Real España,1,0,UPNFM,2.52,1.01,2/3/2022,Clausura,8
128,Vida,4,0,Real Sociedad,3.32,0.46,2/3/2022,Clausura,8
129,Honduras Progreso,2,1,Victoria,1.24,1.95,3/3/2022,Clausura,8
130,Vida,0,1,Real España,1.19,1.47,5/3/2022,Clausura,9
131,Real Sociedad,2,1,Motagua,1.02,1.25,6/3/2022,Clausura,9
132,Olimpia,0,1,Victoria,1.04,1.28,6/3/2022,Clausura,9
133,Platense,0,0,Honduras Progreso,0.88,0.9,6/3/2022,Clausura,9
134,Marathón,4,1,UPNFM,2.43,0.87,6/3/2022,Clausura,9
135,Marathón,1,1,Vida,1.29,1.04,12/3/2022,Clausura,10
136,UPNFM,1,0,Real Sociedad,1.78,0.56,12/3/2022,Clausura,10
137,Honduras Progreso,1,3,Olimpia,0.85,2.2,12/3/2022,Clausura,10
138,Victoria,0,1,Platense,1.19,1.56,12/3/2022,Clausura,10
139,Motagua,0,2,Real España,1.33,1.06,13/03/2022,Clausura,10
140,UPNFM,2,2,Honduras Progreso,1.11,1.68,19/03/2022,Clausura,11
141,Real España,3,2,Platense,1.55,1.7,19/03/2022,Clausura,11
142,Vida,2,0,Motagua,1.04,0.86,19/03/2022,Clausura,11
143,Real Sociedad,1,3,Victoria,1.12,2.32,20/03/2022,Clausura,11
144,Olimpia,3,0,Marathón,1.68,0.51,20/03/2022,Clausura,11
145,Honduras Progreso,0,1,Real Sociedad,3.28,0.54,2/4/2022,Clausura,12
146,Victoria,1,0,Motagua,1,0.84,2/4/2022,Clausura,12
147,Platense,1,0,UPNFM,0.82,0.81,3/4/2022,Clausura,12
148,Olimpia,2,0,Vida,1.83,0.98,3/4/2022,Clausura,12
149,Real España,3,1,Marathón,2.2,0.7,27/04/2022,Clausura,12
150,UPNFM,0,3,Victoria,0.6,2.23,6/4/2022,Clausura,13
151,Marathón,1,1,Honduras Progreso,2.5,1.05,6/4/2022,Clausura,13
152,Motagua,1,2,Olimpia,1,1.26,6/4/2022,Clausura,13
153,Real Sociedad,0,3,Real España,1.18,2.16,6/4/2022,Clausura,13
154,Vida,1,1,Platense,1.17,1.45,6/4/2022,Clausura,13
155,Honduras Progreso,3,1,Vida,1.97,1.38,9/4/2022,Clausura,14
156,Victoria,0,1,Marathón,1.69,0.64,9/4/2022,Clausura,14
157,Motagua,2,0,UPNFM,2.29,0.69,10/4/2022,Clausura,14
158,Real España,1,0,Olimpia,1.1,2.09,10/4/2022,Clausura,14
159,Platense,1,0,Real Sociedad,1.32,0.32,10/4/2022,Clausura,14
160,Marathón,0,3,Motagua,1.27,0.77,13/04/2022,Clausura,15
161,UPNFM,0,2,Real España,0.62,2.08,13/04/2022,Clausura,15
162,Olimpia,0,0,Platense,1.08,1.19,13/04/2022,Clausura,15
163,Victoria,2,2,Honduras Progreso,2.1,1.27,13/04/2022,Clausura,15
164,Real Sociedad,4,1,Vida,1.92,1.66,14/04/2022,Clausura,15
165,Motagua,3,2,Honduras Progreso,2.43,0.82,20/04/2022,Clausura,16
166,Platense,1,0,Marathón,0.72,0.51,20/04/2022,Clausura,16
167,Real Sociedad,0,1,Olimpia,0.81,2.64,20/04/2022,Clausura,16
168,Real España,3,1,Victoria,1.52,1.78,20/04/2022,Clausura,16
169,Vida,4,2,UPNFM,2.07,0.94,20/04/2022,Clausura,16
170,Honduras Progreso,1,1,Real España,1.2,1.83,23/04/2022,Clausura,17
171,Vida,1,1,Victoria,1.31,1.57,23/04/2022,Clausura,17
172,Marathón,6,0,Real Sociedad,3.97,0.4,24/04/2022,Clausura,17
173,Olimpia,0,1,UPNFM,1.83,0.69,24/04/2022,Clausura,17
174,Platense,0,0,Motagua,0.37,0.69,24/04/2022,Clausura,17
175,Honduras Progreso,3,1,Platense,1.12,1.75,30/04/2022,Clausura,18
176,Motagua,6,0,Real Sociedad,3.71,0.3,30/04/2022,Clausura,18
177,Real España,1,4,Vida,2.37,1.3,30/04/2022,Clausura,18
178,UPNFM,1,2,Marathón,0.95,0.83,30/04/2022,Clausura,18
179,Victoria,3,2,Olimpia,0.82,1.88,30/04/2022,Clausura,18
