,#,Jugador,Posición,Fecha de Nacimiento,Edad,JJ,Gol,Asistencia,TA,TR,Altura
0,61,Luis Ortiz,Arquero,"23 Enero, 1998",25,2,0,0,1,0,1.85
1,77,Edwin Marín,Arquero,"30 Marzo, 2001",22,0,0,0,0,0,1.81
2,27,Felix Crisanto,Defensor,"09 Septiembre, 1990",32,19,0,1,5,0,1.86
3,6,Adrián Ramírez,Defensor,"22 Septiembre, 2000",22,0,0,0,0,0,1.71
4,8,Sergio Peña,Mediocampo,"09 Mayo, 1987",36,11,0,0,4,0,1.86
5,2,Andre Orellana,Mediocampo,"11 Marzo, 2002",21,18,2,0,9,2,1.82
6,31,Allan Banegas,Mediocampo,"04 Octubre, 1993",29,21,1,0,5,0,1.85
7,34,Jeffry Miranda,Mediocampo,"03 Septiembre, 2002",20,1,0,0,0,0,1.7
8,19,José Aguilera,Mediocampo,"25 Febrero, 2002",21,10,1,1,2,0,1.71
9,5,Luis Vega,Mediocampo,"28 Febrero, 2002",21,18,2,0,1,0,1.91
10,20,Axel Motiño,Mediocampo,"02 Noviembre, 2000",22,0,0,0,0,0,1.61
11,35,Victor Berríos,Mediocampo,"23 Febrero, 1997",26,0,0,0,0,0,1.72
12,22,Kilmar Peña,Delantero,"09 Marzo, 1997",26,19,2,0,4,0,1.86
13,13,Marco Vega,Delantero,"14 Abril, 1987",36,13,0,0,2,0,1.78
14,15,Allans Vargas,Defensor,"25 Septiembre, 1993",29,7,0,0,0,0,1.75
15,12,Cesar Guillen,Delantero,"27 Octubre, 1996",26,4,0,0,0,0,1.71
16,16,Denilson Nuñez,Mediocampo,"24 Mayo, 1999",24,2,0,0,0,0,1.79
17,21,Odín Ramos,Mediocampo,"16 Febrero, 2004",19,11,0,0,2,0,-
18,29,Jeyson Contreras,Mediocampo,"16 Marzo, 2003",20,2,0,0,0,0,-
19,7,Isaac Castillo,Delantero,"24 Mayo, 2003",20,11,1,1,0,0,-
20,10,Damin Ramirez,Mediocampo,"15 Enero, 1993",30,22,3,5,0,0,-
21,11,Selvin Guevara,Mediocampo,"15 Febrero, 1999",24,11,1,0,3,0,-
22,18,Junior Lacayo,Delantero,"19 Agosto, 1995",27,17,0,0,3,0,-
23,14,Javier Antonio Arriaga Chavez,Defensor,"01 Agosto, 2004",18,17,0,0,2,0,-
24,4,Francisco Enrique Martinez Hernandez,Mediocampo,"29 Octubre, 1992",30,21,1,0,1,0,-
25,9,Clayvin Zuniga,Delantero,"29 Marzo, 1991",32,21,7,1,4,0,-
26,30,Edis Horacio Ibarguen Garcia,Delantero,"22 Noviembre, 1991",31,17,1,1,4,0,-
27,3,Jhon Jairo Jimenez Vega,Defensor,"03 Abril, 1995",28,10,0,0,2,1,-
28,23,Cesar Jair Samudio Murillo,Arquero,"23 Febrero, 1994",29,20,0,0,1,0,-
29,70,Jerry Alberto Ortiz Cortes,Mediocampo,"07 Noviembre, 1992",30,10,0,1,1,0,-
30,49,Enzo Torres,Arquero,"09 Abril, 2003",20,0,0,0,0,0,-
31,24,Óscar Barrios,Defensor,"03 Junio, 2003",20,0,0,0,0,0,-
32,37,César Benítez,Defensor,"07 Febrero, 2003",20,0,0,0,0,0,-
33,39,Ángel García,Mediocampo,"07 Diciembre, 2004",18,0,0,0,0,0,-
34,52,Axel Alvarado,Mediocampo,"01 Mayo, 2004",19,0,0,0,0,0,-
35,44,Tulio Miranda,Delantero,"15 Octubre, 2003",19,0,0,0,0,0,-
36,45,Stedman Pérez,Mediocampo,"25 Julio, 2005",17,0,0,0,0,0,-
37,76,Carlos Rápalo,Arquero,"08 Agosto, 2003",19,0,0,0,0,0,-
38,58,Darwin Ivan Norales Flores,Mediocampo,"16 Enero, 2005",18,0,0,0,0,0,-
39,51,Denis Samir Herrera Centeno,Mediocampo,"19 Marzo, 2004",19,0,0,0,0,0,-
40,40,Kleberson Antonio Lopez Murillo,Mediocampo,"13 Marzo, 2004",19,0,0,0,0,0,-
41,36,Alejandro Jose Lopez Rojas,Mediocampo,"04 Enero, 2003",20,0,0,0,0,0,-
42,42,Denilson Raul Espinoza Madrid,Mediocampo,"10 Septiembre, 2006",16,0,0,0,0,0,-
43,48,Jefferson Francisco Nuñez Flores,Mediocampo,"11 Junio, 2006",17,0,0,0,0,0,-
44,67,Diery Lareiny Mena Garcia,Mediocampo,"08 Junio, 2004",19,0,0,0,0,0,-
45,41,Jesus Jafeth Hill Arzu,Mediocampo,"03 Marzo, 2005",18,0,0,0,0,0,-
46,56,Jose Sebastian Fajardo Suazo,Mediocampo,"24 Junio, 2003",19,0,0,0,0,0,-
47,25,Luis Ángel Alonso Urbina Posas,Arquero,"20 Agosto, 2005",17,0,0,0,0,0,-
48,47,Irvin Joseph Giron Funez,Mediocampo,"28 Febrero, 2005",18,0,0,0,0,0,-
49,54,Emil Jesus Martinez Castro,Mediocampo,"09 Febrero, 2005",18,0,0,0,0,0,-
50,33,José Mario Berríos Oliva,Mediocampo,"13 Junio, 2005",17,0,0,0,0,0,-
51,60,Luis Alonso Arriaga Chavez,Mediocampo,"16 Noviembre, 2006",16,0,0,0,0,0,-
52,65,Jonathan Yair Bueso Reyes,Mediocampo,"17 Agosto, 2006",16,0,0,0,0,0,-
53,28,Derick Alexander Palacios Avila,Mediocampo,"02 Septiembre, 2005",17,0,0,0,0,0,-
54,55,Carlos Eduardo Pineda Cruz,Mediocampo,"15 Febrero, 2006",17,0,0,0,0,0,-
